{
   
   "name": "default",
   "type": "postgres",
   "host": "localhost",
   "port": 5432,
   "username": "admin",
   "password": "1234",
   "database": "workteam_dev",
   "schema": "public",
   "synchronize": false,
   "entities": [
      "src/entity/**/*.ts"
   ],
   "migrations": [
      "src/migration/**/*.ts"
   ],
   "subscribers": [
      "src/subscriber/**/*.ts"
   ],
   "cli": {
      "entitiesDir": "src/entity",
      "migrationsDir": "src/migration",
      "subscribersDir": "src/subscriber"
   }
}
